<?xml version="1.0" encoding="utf-8"?>
<!-- Generator: Adobe Illustrator 22.1.0, SVG Export Plug-In . SVG Version: 6.00 Build 0)  -->
<svg version="1.1" id="Слой_1" xmlns="http://www.w3.org/2000/svg" xmlns:xlink="http://www.w3.org/1999/xlink" x="0px" y="0px"
	 viewBox="0 0 63 63" style="enable-background:new 0 0 63 63;" xml:space="preserve">
<style type="text/css">
	.st0{fill:#32456E;}
</style>
<title>icon-twitter-blue</title>
<g>
	<g id="Слой_2_1_">
		<g id="Layer_1">
			
				<image style="overflow:visible;opacity:0.1;enable-background:new    ;" width="86" height="81" xlink:href="FCDAA29C.png"  transform="matrix(1 0 0 1 -11.5 -9)">
			</image>
			<path class="st0" d="M19,39.4c2.7,0.3,5.4-0.5,7.5-2.2c-2.2-0.1-4.1-1.5-4.8-3.6c0.4,0,0.8,0,1.1,0c0.4,0,0.7-0.1,1.1-0.2
				c-1.1-0.3-2.2-0.9-2.9-1.9c-0.7-0.9-1.1-2.1-1.1-3.3c0.7,0.4,1.5,0.6,2.3,0.6C21,28,20.1,26.6,20,25.1c-0.1-1.1,0.1-2.2,0.6-3.2
				c2.6,3.2,6.5,5.2,10.6,5.4l-0.1-0.4c-0.4-2.8,1.6-5.4,4.4-5.8c0.6-0.1,1.2-0.1,1.8,0.1c1,0.2,1.9,0.7,2.5,1.4
				c0.1,0.1,0.2,0.1,0.3,0.1c1-0.2,2-0.6,2.9-1.1l0.2-0.1c-0.4,1.1-1.1,2.1-2.1,2.8v0.1c0.5-0.1,0.9-0.2,1.4-0.3s0.9-0.3,1.4-0.5
				c-0.4,0.6-0.8,1.1-1.3,1.6c-0.3,0.3-0.7,0.6-1,0.9c-0.1,0.2-0.1,0.3-0.1,0.5c0.1,1.5-0.1,3-0.5,4.4c-0.3,1.2-0.8,2.4-1.4,3.5
				c-0.7,1.3-1.6,2.4-2.7,3.4c-1.4,1.3-3,2.3-4.8,3c-2.1,0.7-4.3,1-6.4,0.8c-1.2-0.1-2.5-0.4-3.6-0.8c-1-0.3-1.9-0.8-2.8-1.3
				L19,39.4z"/>
		</g>
	</g>
</g>
</svg>
