<svg xmlns="http://www.w3.org/2000/svg" viewBox="0 0 18.33 14.97">
    <g id="Слой_2" data-name="Слой 2">
        <g id="Layer_1" data-name="Layer 1">
            <path class="cls-1" d="M0,13.31a7.78,7.78,0,0,0,5.51-1.59A3.85,3.85,0,0,1,2,9.11c.29,0,.56,0,.83,0A4.52,4.52,0,0,0,3.63,9,4,4,0,0,1,1.5,7.67,3.73,3.73,0,0,1,.68,5.28a3.85,3.85,0,0,0,1.69.44A3.72,3.72,0,0,1,.74,3,3.61,3.61,0,0,1,1.22.7,10.8,10.8,0,0,0,9,4.64l0-.3A3.7,3.7,0,0,1,10.15,1,3.66,3.66,0,0,1,13.47.08a3.57,3.57,0,0,1,1.87,1,.22.22,0,0,0,.25.08A7.88,7.88,0,0,0,17.71.35l.13-.06a3.76,3.76,0,0,1-1.56,2l0,0c.34-.07.68-.13,1-.22s.67-.22,1-.34a6.56,6.56,0,0,1-1,1.17c-.25.23-.51.45-.77.66a.26.26,0,0,0-.11.25,10.55,10.55,0,0,1-.39,3.21A11.69,11.69,0,0,1,15,9.62a10.78,10.78,0,0,1-1.95,2.51,10.13,10.13,0,0,1-3.52,2.19,11.32,11.32,0,0,1-4.72.61,9.87,9.87,0,0,1-2.67-.57,10.58,10.58,0,0,1-2-1Z" />
        </g>
    </g>
</svg>