<svg xmlns="http://www.w3.org/2000/svg" viewBox="0 0 25 25">
    <g id="Слой_2" data-name="Слой 2">
        <g id="Layer_1" data-name="Layer 1">
            <path class="cls-1" d="M0,19.2V5.76c.05-.43.08-.86.16-1.28A5.18,5.18,0,0,1,3.84.31,8.9,8.9,0,0,1,6.61,0h11.8a15.69,15.69,0,0,1,1.81.1,5.21,5.21,0,0,1,4,2.59A6.07,6.07,0,0,1,25,6c0,4.19,0,8.37,0,12.55a12,12,0,0,1-.16,2,5.14,5.14,0,0,1-3.16,4,6.89,6.89,0,0,1-2.77.48H6.82a18.94,18.94,0,0,1-2-.1A5.25,5.25,0,0,1,.2,20.68C.1,20.19.07,19.69,0,19.2Zm12.53-16c-1.15,0-2.3,0-3.45,0a5.91,5.91,0,0,0-1.26.12A5.74,5.74,0,0,0,3.22,9c0,2.35,0,4.71,0,7.06a5.67,5.67,0,0,0,.07.82,5.74,5.74,0,0,0,5.78,4.93h6.87a6.64,6.64,0,0,0,1.26-.12A5.73,5.73,0,0,0,21.79,16c0-2.33,0-4.66,0-7a6.13,6.13,0,0,0-.12-1.21A5.73,5.73,0,0,0,16,3.22C14.85,3.21,13.69,3.22,12.53,3.22Z" />
            <path class="cls-1" d="M12.49,20.18H9.06a4.14,4.14,0,0,1-4.23-4.24V9.07A4.14,4.14,0,0,1,9.06,4.83h6.88a4.13,4.13,0,0,1,4.24,4.25v6.85a4.14,4.14,0,0,1-4.24,4.25Zm0-3.06a4.62,4.62,0,1,0-4.62-4.61A4.63,4.63,0,0,0,12.51,17.12Zm3.92-9.67a1.14,1.14,0,1,0,1.14-1.13A1.13,1.13,0,0,0,16.43,7.45Z" />
            <path class="cls-1" d="M12.49,15.51a3,3,0,1,1,3-3A3,3,0,0,1,12.49,15.51Z" />
        </g>
    </g>
</svg>